<svg width="24" height="24" viewBox="0 0 24 24" fill="none" xmlns="http://www.w3.org/2000/svg">
<path d="M17.6423 8.23676L12.004 13.875L6.36172 8.23676C6.0507 7.92574 5.54429 7.92574 5.23327 8.23676C4.92225 8.54778 4.92225 9.05419 5.23327 9.36521L12 16.1319L18.7667 9.36122C19.0778 9.0502 19.0778 8.54379 18.7667 8.23277C18.4557 7.92175 17.9533 7.92175 17.6423 8.23676Z" fill="#222222"/>
</svg>
