<svg width="84" height="84" viewBox="0 0 84 84" fill="none" xmlns="http://www.w3.org/2000/svg">
<path d="M68.9436 21H15.9333C15.4178 21 15 21.4178 15 21.9333V57.3046C15 57.82 15.4178 58.2379 15.9333 58.2379H68.9436C69.459 58.2379 69.8769 57.82 69.8769 57.3046V21.9333C69.8769 21.4178 69.459 21 68.9436 21Z" stroke="white" stroke-width="2" stroke-linecap="round" stroke-linejoin="round"/>
<path d="M29.3818 68H55.495" stroke="white" stroke-width="2" stroke-linecap="round" stroke-linejoin="round"/>
<path d="M15 51.7888H69.8769" stroke="white" stroke-width="2" stroke-linecap="round" stroke-linejoin="round"/>
<path d="M36.064 58.238V68.0001" stroke="white" stroke-width="2" stroke-linecap="round" stroke-linejoin="round"/>
<path d="M48.8033 58.4058V67.8319" stroke="white" stroke-width="2" stroke-linecap="round" stroke-linejoin="round"/>
<path d="M50.2106 38.875C50.3065 38.875 50.4024 38.8489 50.4982 38.8489C51.9279 38.8489 53.0874 39.8165 53.0874 41.0021V44.0184C53.0874 45.2127 51.9279 46.1716 50.4982 46.1716H50.2106" stroke="white" stroke-width="2" stroke-linecap="round" stroke-linejoin="round"/>
<path d="M34.676 38.875C34.5801 38.875 34.4842 38.8489 34.3883 38.8489C32.9586 38.8489 31.7992 39.8165 31.7992 41.0021V44.0184C31.7992 45.2127 32.9586 46.1716 34.3883 46.1716C34.4842 46.1716 34.5801 46.1716 34.676 46.1716" stroke="white" stroke-width="2" stroke-linecap="round" stroke-linejoin="round"/>
<path d="M34.676 46.1803V35.6757C34.676 32.5025 37.2477 28.4663 40.4296 28.4663H44.4571C47.639 28.4663 50.2106 32.4938 50.2106 35.6757V46.1803" stroke="white" stroke-width="2" stroke-linecap="round" stroke-linejoin="round"/>
</svg>
