<svg width="52" height="52" viewBox="0 0 52 52" fill="none" xmlns="http://www.w3.org/2000/svg">
<circle cx="26" cy="26" r="24.5" fill="white" stroke="#23C28D" stroke-width="3"/>
<g clip-path="url(#clip0_394_14267)">
<path d="M34.6197 18L23.8385 28.564L17.3803 22.2331L15 24.5665L23.8385 33.2308L37 20.3334L34.6197 18Z" fill="#23C28D"/>
</g>
<defs>
<clipPath id="clip0_394_14267">
<rect width="22" height="15.2308" fill="white" transform="translate(15 18)"/>
</clipPath>
</defs>
</svg>
