<svg width="84" height="84" viewBox="0 0 84 84" fill="none" xmlns="http://www.w3.org/2000/svg">
<path d="M67 32.5085H16V69.4396H67V32.5085Z" stroke="white" stroke-width="2" stroke-linecap="round" stroke-linejoin="round"/>
<path d="M62.6035 65.0432V36.9053H20.3966V65.0432H62.6035Z" stroke="white" stroke-width="2" stroke-linecap="round" stroke-linejoin="round"/>
<path d="M41.4999 25.0345C43.4424 25.0345 45.0171 23.4598 45.0171 21.5172C45.0171 19.5747 43.4424 18 41.4999 18C39.5574 18 37.9827 19.5747 37.9827 21.5172C37.9827 23.4598 39.5574 25.0345 41.4999 25.0345Z" stroke="white" stroke-width="2" stroke-linecap="round" stroke-linejoin="round"/>
<path d="M37.9828 21.5173L25.9626 32.0691" stroke="white" stroke-width="2" stroke-linecap="round" stroke-linejoin="round"/>
<path d="M45.0173 21.5173L57.0375 32.0691" stroke="white" stroke-width="2" stroke-linecap="round" stroke-linejoin="round"/>
<path d="M37.9827 54.4915H29.1896C27.2471 54.4915 25.6724 56.0662 25.6724 58.0087V61.5259C25.6724 63.4685 27.2471 65.0432 29.1896 65.0432H37.9827C39.9252 65.0432 41.5 63.4685 41.5 61.5259V58.0087C41.5 56.0662 39.9252 54.4915 37.9827 54.4915Z" stroke="white" stroke-width="2" stroke-linecap="round" stroke-linejoin="round"/>
<path d="M30.9482 65.0432V54.4915" stroke="white" stroke-width="2" stroke-linecap="round" stroke-linejoin="round"/>
<path d="M36.2241 65.0432V54.4915" stroke="white" stroke-width="2" stroke-linecap="round" stroke-linejoin="round"/>
</svg>
