<svg width="24" height="24" viewBox="0 0 24 24" fill="none" xmlns="http://www.w3.org/2000/svg">
<path d="M4.82737 11.8191L4.83533 11.8111L4.83537 11.8111L4.83542 11.811L4.83546 11.811L4.8355 11.8109L4.83555 11.8109L4.83559 11.8109L4.83563 11.8108L4.83568 11.8108L4.83572 11.8107L4.83576 11.8107L4.83581 11.8106L4.83585 11.8106L4.83589 11.8106L4.83594 11.8105L4.83598 11.8105L4.83602 11.8104L4.83607 11.8104L4.83611 11.8103L4.83615 11.8103L4.8362 11.8102L4.83624 11.8102L4.83629 11.8102L4.83633 11.8101L4.83637 11.8101L4.83642 11.81L4.83646 11.81L4.8365 11.8099L4.83655 11.8099L4.83659 11.8099L4.83663 11.8098L4.83668 11.8098L4.83672 11.8097L4.83677 11.8097L4.83681 11.8096L4.83685 11.8096L4.8369 11.8095L4.83694 11.8095L4.83698 11.8095L4.83703 11.8094L4.83707 11.8094L4.83712 11.8093L4.83716 11.8093L4.8372 11.8092L4.83725 11.8092L4.83729 11.8092L4.83734 11.8091L4.83738 11.8091L4.83742 11.809L4.83747 11.809L4.83751 11.8089L4.83756 11.8089L4.8376 11.8088L4.83764 11.8088L4.83769 11.8088L4.83773 11.8087L4.83778 11.8087L4.83782 11.8086L4.83786 11.8086L4.83791 11.8085L4.83795 11.8085L4.838 11.8084L4.83804 11.8084L4.83809 11.8084L4.83813 11.8083L4.83817 11.8083L4.83822 11.8082L4.83826 11.8082L4.83831 11.8081L4.83835 11.8081L4.8384 11.8081L4.83844 11.808L4.83848 11.808L4.83853 11.8079L4.83857 11.8079L4.83862 11.8078L4.83866 11.8078L4.83871 11.8077L4.83875 11.8077L4.8388 11.8077L4.83884 11.8076L4.83889 11.8076L4.83893 11.8075L4.83897 11.8075L4.83902 11.8074L4.83906 11.8074L4.83911 11.8073L4.83915 11.8073L4.8392 11.8072L4.83924 11.8072L4.83929 11.8072L4.83933 11.8071L4.83938 11.8071L4.83942 11.807L4.83947 11.807L4.83951 11.8069L4.83956 11.8069L4.8396 11.8068L4.83964 11.8068L4.83969 11.8068L4.83973 11.8067L4.83978 11.8067L4.83982 11.8066L4.83987 11.8066L4.83991 11.8065L4.83996 11.8065L4.84 11.8064L4.84005 11.8064L4.84009 11.8064L4.84014 11.8063L4.84018 11.8063L4.84023 11.8062L4.84027 11.8062L4.84032 11.8061L4.84036 11.8061L4.84041 11.806L4.84045 11.806L4.8405 11.8059L4.84054 11.8059L4.84059 11.8059L4.84063 11.8058L4.84068 11.8058L4.84072 11.8057L4.84077 11.8057L4.84081 11.8056L4.84086 11.8056L4.8409 11.8055L4.84095 11.8055L4.84099 11.8055L4.84104 11.8054L4.84108 11.8054L4.84113 11.8053L4.84117 11.8053L4.84122 11.8052L4.84126 11.8052L4.84131 11.8051L4.84136 11.8051L4.8414 11.805L4.84145 11.805L4.84149 11.805L4.84154 11.8049L4.84158 11.8049L4.84163 11.8048L4.84167 11.8048L4.84172 11.8047L4.84176 11.8047L4.84181 11.8046L4.84185 11.8046L4.8419 11.8045L4.84194 11.8045L4.84199 11.8045L4.84203 11.8044L4.84208 11.8044L4.84213 11.8043L4.84217 11.8043L4.84222 11.8042L4.84226 11.8042L4.84231 11.8041L4.84235 11.8041L4.8424 11.804L4.84244 11.804L4.84249 11.804L4.84253 11.8039L4.84258 11.8039L4.84262 11.8038L4.84267 11.8038L4.84272 11.8037L4.84276 11.8037L4.84281 11.8036L4.84285 11.8036L4.8429 11.8035L4.84294 11.8035L4.84299 11.8035L4.84303 11.8034L4.84308 11.8034L4.84313 11.8033L4.84317 11.8033L4.84322 11.8032L4.84326 11.8032L4.84331 11.8031L4.84335 11.8031L4.8434 11.803L4.84344 11.803L4.84349 11.803L4.84354 11.8029L4.84358 11.8029L4.84363 11.8028L4.84367 11.8028L4.84372 11.8027L4.84376 11.8027L4.84381 11.8026L4.84385 11.8026L4.8439 11.8025L4.84395 11.8025L4.84399 11.8025L4.84404 11.8024L4.84408 11.8024L4.84413 11.8023L4.84417 11.8023L4.84422 11.8022L4.84427 11.8022L4.84431 11.8021L4.84436 11.8021L4.8444 11.802L4.84445 11.802L4.84449 11.802L4.84454 11.8019L4.84459 11.8019L4.84463 11.8018L4.84468 11.8018L4.84472 11.8017L4.84477 11.8017L4.84481 11.8016L4.84486 11.8016L4.8449 11.8015L4.84495 11.8015L4.845 11.8015L4.84504 11.8014L4.84509 11.8014L4.84513 11.8013L4.84518 11.8013L4.84523 11.8012L4.84527 11.8012L4.84532 11.8011L4.84536 11.8011L4.84541 11.801L4.84545 11.801L4.8455 11.8009L4.84555 11.8009L4.84559 11.8009L4.84564 11.8008L4.84568 11.8008L4.84573 11.8007L4.84577 11.8007L4.84582 11.8006L4.84587 11.8006L4.84591 11.8005L4.84596 11.8005L4.846 11.8004L4.84605 11.8004L4.8461 11.8004L4.84614 11.8003L4.84619 11.8003L4.84623 11.8002L4.84628 11.8002L4.84632 11.8001L4.84637 11.8001L4.84642 11.8L4.84646 11.8L4.84651 11.7999L4.84655 11.7999L4.8466 11.7998L4.84664 11.7998L4.84669 11.7998L4.84674 11.7997L4.84678 11.7997L4.84683 11.7996L4.84687 11.7996L4.84692 11.7995L4.84697 11.7995L4.84701 11.7994L4.84706 11.7994L4.8471 11.7993L4.84715 11.7993L4.84719 11.7993L4.84724 11.7992L4.84729 11.7992L4.84733 11.7991L4.84738 11.7991L4.84742 11.799L4.84747 11.799L4.84752 11.7989L4.84756 11.7989L4.84761 11.7988L4.84765 11.7988L4.8477 11.7987L4.84774 11.7987L4.84779 11.7987L4.84784 11.7986L4.84788 11.7986L4.84793 11.7985L4.84797 11.7985L4.84802 11.7984L4.84806 11.7984L4.84811 11.7983L4.84816 11.7983L4.8482 11.7982L4.84825 11.7982L4.84829 11.7982L4.84834 11.7981L4.84839 11.7981L4.84843 11.798L4.84848 11.798L4.84852 11.7979L4.84857 11.7979L4.84861 11.7978L4.84866 11.7978L4.84871 11.7977L4.84875 11.7977L4.8488 11.7977L4.84884 11.7976L4.84889 11.7976L4.84893 11.7975L4.84898 11.7975L4.84903 11.7974L4.84907 11.7974L4.84912 11.7973L4.84916 11.7973L4.84921 11.7972L4.84925 11.7972L4.8493 11.7971L4.84935 11.7971L4.84939 11.7971L4.84944 11.797L4.84948 11.797L4.84953 11.7969L4.84957 11.7969L4.84962 11.7968L4.84967 11.7968L4.84971 11.7967L4.84976 11.7967L4.8498 11.7966L4.84985 11.7966L4.84989 11.7966L4.84994 11.7965L4.84998 11.7965L4.85003 11.7964L4.85008 11.7964L4.85012 11.7963L4.85017 11.7963L4.85021 11.7962L4.85026 11.7962L4.8503 11.7961L4.85035 11.7961L4.85039 11.7961L4.85044 11.796L4.85049 11.796L4.85053 11.7959L4.85058 11.7959L4.85062 11.7958L4.85067 11.7958L4.85071 11.7957L4.85076 11.7957L4.8508 11.7956L4.85085 11.7956L4.8509 11.7956L4.85094 11.7955L4.85099 11.7955L4.85103 11.7954L4.85108 11.7954L4.85112 11.7953L4.85117 11.7953L4.85121 11.7952L4.85126 11.7952L4.8513 11.7951L4.85135 11.7951L4.8514 11.7951L4.85144 11.795L4.85149 11.795L4.85153 11.7949L4.85158 11.7949L4.85162 11.7948L4.85167 11.7948L4.85171 11.7947L4.85176 11.7947L4.8518 11.7946L4.85185 11.7946L4.85189 11.7946L4.85194 11.7945L4.85198 11.7945L4.85203 11.7944L4.85208 11.7944L4.85212 11.7943L4.85217 11.7943L4.85221 11.7942L4.85226 11.7942L4.8523 11.7941L4.85235 11.7941L4.85239 11.7941L4.85244 11.794L4.85248 11.794L4.85253 11.7939L4.85257 11.7939L4.85262 11.7938L4.85266 11.7938L4.85271 11.7937L4.85275 11.7937L4.8528 11.7936L4.85284 11.7936L4.85289 11.7936L4.85293 11.7935L4.85298 11.7935L4.85302 11.7934L4.85307 11.7934L4.85311 11.7933L4.85316 11.7933L4.8532 11.7932L4.85325 11.7932L4.85329 11.7932L4.85334 11.7931L4.85338 11.7931L4.85343 11.793L4.85347 11.793L4.85352 11.7929L4.85356 11.7929L4.85361 11.7928L4.85365 11.7928L4.8537 11.7927L4.85374 11.7927L4.85379 11.7927L4.85383 11.7926L4.85388 11.7926L4.85392 11.7925L4.85397 11.7925L4.85401 11.7924L4.85406 11.7924L4.8541 11.7923L4.85415 11.7923L4.85419 11.7923L4.85424 11.7922L4.85428 11.7922L4.85432 11.7921L4.85437 11.7921L4.85441 11.792L4.85446 11.792L4.8545 11.7919L4.85455 11.7919L4.85459 11.7919L4.85464 11.7918L4.85468 11.7918L4.85473 11.7917L4.85477 11.7917L4.85482 11.7916L4.85486 11.7916L4.8549 11.7915L4.85495 11.7915L4.85499 11.7915L4.85504 11.7914L4.85508 11.7914L4.85513 11.7913L4.85517 11.7913L4.85522 11.7912L4.85526 11.7912L4.8553 11.7911L4.85535 11.7911L4.85539 11.7911L4.85544 11.791L4.85548 11.791L4.85553 11.7909L4.85557 11.7909L4.85561 11.7908L4.85566 11.7908L4.8557 11.7907L4.85575 11.7907L4.85579 11.7907L4.85584 11.7906L4.85588 11.7906L4.85592 11.7905L4.85597 11.7905L4.85601 11.7904L4.85606 11.7904L4.8561 11.7903L4.85614 11.7903L4.85619 11.7903L4.85623 11.7902L4.85628 11.7902L4.85632 11.7901L4.85636 11.7901L4.85641 11.79L4.85645 11.79L4.8565 11.79L4.85654 11.7899L4.85658 11.7899L4.85663 11.7898L4.85667 11.7898L4.85672 11.7897L4.85676 11.7897L4.8568 11.7896L4.85685 11.7896L4.85689 11.7896L4.85693 11.7895L4.85698 11.7895L4.85702 11.7894L4.85707 11.7894L4.85711 11.7893L4.85715 11.7893L4.8572 11.7892L4.85724 11.7892L4.85728 11.7892L4.85733 11.7891L4.85737 11.7891L4.85741 11.789L4.85746 11.789L4.8575 11.7889L4.85754 11.7889L4.85759 11.7889L4.85763 11.7888L4.85768 11.7888L4.85772 11.7887L4.85776 11.7887L4.85781 11.7886L4.85785 11.7886L4.85789 11.7886L4.85794 11.7885L4.85798 11.7885L4.85802 11.7884L4.85807 11.7884L4.85811 11.7883L4.85815 11.7883L4.85819 11.7883L4.85824 11.7882L4.85828 11.7882L4.85832 11.7881L4.85836 11.7881L13.5462 3.10371C13.5462 3.10369 13.5463 3.10368 13.5463 3.10367C13.5468 3.10313 13.5475 3.10245 13.5483 3.10164C13.582 3.06775 13.8465 2.80215 14.2678 2.53565C14.6973 2.26391 15.3061 1.98084 16.0113 1.95507L16.0117 1.95506C16.85 1.92565 17.6119 2.25834 18.2685 2.91491C18.9271 3.57351 19.2299 4.30648 19.1899 5.13284L4.82737 11.8191ZM4.82737 11.8191L4.82016 11.8277M4.82737 11.8191L4.82016 11.8277M4.82016 11.8277C4.82244 11.825 4.81294 11.8363 4.80662 11.8439C4.7983 11.8539 4.78684 11.8678 4.77256 11.8855C4.74403 11.9209 4.70433 11.9713 4.65608 12.0356C4.55963 12.164 4.4288 12.3481 4.28455 12.5786C3.99661 13.0389 3.6522 13.6892 3.42283 14.4559C2.97615 15.949 2.96811 17.8885 4.6482 19.6922L4.64417 19.6962L4.82094 19.873C5.74405 20.7961 6.7034 21.2466 7.62848 21.3904C8.55016 21.5337 9.41973 21.3697 10.1639 21.0934C10.9076 20.8172 11.534 20.4258 11.9757 20.103C12.197 19.9413 12.3732 19.7958 12.496 19.689C12.6135 19.5868 12.6881 19.5144 12.6902 19.5123L12.6903 19.5125L12.6981 19.5047L12.6981 19.5047L12.6982 19.5046L12.6982 19.5046L12.6982 19.5046L12.6982 19.5046L12.6983 19.5045L12.6983 19.5045L12.6983 19.5045L12.6984 19.5044L12.6984 19.5044L12.6984 19.5044L12.6984 19.5044L12.6985 19.5043L12.6985 19.5043L12.6985 19.5043L12.6985 19.5043L12.6986 19.5042L12.6986 19.5042L12.6986 19.5042L12.6987 19.5041L12.6987 19.5041L12.6987 19.5041L12.6987 19.5041L12.6988 19.504L12.6988 19.504L12.6988 19.504L12.6988 19.504L12.6989 19.5039L12.6989 19.5039L12.6989 19.5039L12.699 19.5038L12.699 19.5038L12.699 19.5038L12.699 19.5038L12.6991 19.5037L12.6991 19.5037L12.6991 19.5037L12.6991 19.5036L12.6992 19.5036L12.6992 19.5036L12.6992 19.5036L12.6993 19.5035L12.6993 19.5035L12.6993 19.5035L12.6993 19.5035L12.6994 19.5034L12.6994 19.5034L12.6994 19.5034L12.6995 19.5033L12.6995 19.5033L12.6995 19.5033L12.6995 19.5033L12.6996 19.5032L12.6996 19.5032L12.6996 19.5032L12.6996 19.5031L12.6997 19.5031L12.6997 19.5031L12.6997 19.5031L12.6998 19.503L12.6998 19.503L12.6998 19.503L12.6998 19.5029L12.6999 19.5029L12.6999 19.5029L12.6999 19.5029L12.7 19.5028L12.7 19.5028L12.7 19.5028L12.7 19.5028L12.7001 19.5027L12.7001 19.5027L12.7001 19.5027L12.7002 19.5026L12.7002 19.5026L12.7002 19.5026L12.7002 19.5026L12.7003 19.5025L12.7003 19.5025L12.7003 19.5025L12.7004 19.5024L12.7004 19.5024L12.7004 19.5024L12.7004 19.5024L12.7005 19.5023L12.7005 19.5023L12.7005 19.5023L12.7006 19.5022L12.7006 19.5022L12.7006 19.5022L12.7006 19.5022L12.7007 19.5021L12.7007 19.5021L12.7007 19.5021L12.7008 19.502L12.7008 19.502L12.7008 19.502L12.7008 19.502L12.7009 19.5019L12.7009 19.5019L12.7009 19.5019L12.701 19.5018L12.701 19.5018L12.701 19.5018L12.701 19.5018L12.7011 19.5017L12.7011 19.5017L12.7011 19.5017L12.7012 19.5016L12.7012 19.5016L12.7012 19.5016L12.7012 19.5016L12.7013 19.5015L12.7013 19.5015L12.7013 19.5015L12.7014 19.5014L12.7014 19.5014L12.7014 19.5014L12.7014 19.5014L12.7015 19.5013L12.7015 19.5013L12.7015 19.5013L12.7016 19.5012L12.7016 19.5012L12.7016 19.5012L12.7016 19.5012L12.7017 19.5011L12.7017 19.5011L12.7017 19.5011L12.7018 19.501L12.7018 19.501L12.7018 19.501L12.7018 19.5009L12.7019 19.5009L12.7019 19.5009L12.7019 19.5009L12.702 19.5008L12.702 19.5008L12.702 19.5008L12.7021 19.5007L12.7021 19.5007L12.7021 19.5007L12.7021 19.5007L12.7022 19.5006L12.7022 19.5006L12.7022 19.5006L12.7023 19.5005L12.7023 19.5005L12.7023 19.5005L12.7023 19.5005L12.7024 19.5004L12.7024 19.5004L12.7024 19.5004L12.7025 19.5003L12.7025 19.5003L12.7025 19.5003L12.7025 19.5002L12.7026 19.5002L12.7026 19.5002L12.7026 19.5002L12.7027 19.5001L12.7027 19.5001L12.7027 19.5001L12.7028 19.5L12.7028 19.5L12.7028 19.5L12.7028 19.5L12.7029 19.4999L12.7029 19.4999L12.7029 19.4999L12.703 19.4998L12.703 19.4998L12.703 19.4998L12.703 19.4998L12.7031 19.4997L12.7031 19.4997L12.7031 19.4997L12.7032 19.4996L12.7032 19.4996L12.7032 19.4996L12.7032 19.4995L12.7033 19.4995L12.7033 19.4995L12.7033 19.4995L12.7034 19.4994L12.7034 19.4994L12.7034 19.4994L12.7035 19.4993L12.7035 19.4993L12.7035 19.4993L12.7035 19.4993L12.7036 19.4992L12.7036 19.4992L12.7036 19.4992L12.7037 19.4991L12.7037 19.4991L12.7037 19.4991L12.7038 19.499L12.7038 19.499L12.7038 19.499L12.7038 19.499L12.7039 19.4989L12.7039 19.4989L12.7039 19.4989L12.704 19.4988L12.704 19.4988L12.704 19.4988L12.704 19.4987L12.7041 19.4987L12.7041 19.4987L12.7041 19.4987L12.7042 19.4986L12.7042 19.4986L12.7042 19.4986L12.7043 19.4985L12.7043 19.4985L12.7043 19.4985L12.7043 19.4985L12.7044 19.4984L12.7044 19.4984L12.7044 19.4984L12.7045 19.4983L12.7045 19.4983L12.7045 19.4983L12.7045 19.4982L12.7046 19.4982L12.7046 19.4982L12.7046 19.4982L12.7047 19.4981L12.7047 19.4981L12.7047 19.4981L12.7048 19.498L12.7048 19.498L12.7048 19.498L12.7048 19.498L12.7049 19.4979L12.7049 19.4979L12.7049 19.4979L12.705 19.4978L12.705 19.4978L12.705 19.4978L12.7051 19.4977L12.7051 19.4977L12.7051 19.4977L12.7051 19.4977L12.7052 19.4976L12.7052 19.4976L12.7052 19.4976L12.7053 19.4975L12.7053 19.4975L12.7053 19.4975L12.7053 19.4974L12.7054 19.4974L12.7054 19.4974L12.7054 19.4974L12.7055 19.4973L12.7055 19.4973L12.7055 19.4973L12.7056 19.4972L12.7056 19.4972L12.7056 19.4972L12.7056 19.4972L12.7057 19.4971L12.7057 19.4971L12.7057 19.4971L12.7058 19.497L12.7058 19.497L12.7058 19.497L12.7059 19.4969L12.7059 19.4969L12.7059 19.4969L12.7059 19.4969L12.706 19.4968L12.706 19.4968L12.706 19.4968L12.7061 19.4967L12.7061 19.4967L12.7061 19.4967L12.7061 19.4966L12.7062 19.4966L12.7062 19.4966L12.7062 19.4966L12.7063 19.4965L12.7063 19.4965L12.7063 19.4965L12.7064 19.4964L12.7064 19.4964L12.7064 19.4964L12.7064 19.4964L12.7065 19.4963L12.7065 19.4963L12.7065 19.4963L12.7066 19.4962L12.7066 19.4962L12.7066 19.4962L12.7067 19.4961L12.7067 19.4961L12.7067 19.4961L12.7067 19.4961L12.7068 19.496L12.7068 19.496L12.7068 19.496L12.7069 19.4959L12.7069 19.4959L12.7069 19.4959L12.7069 19.4958L12.707 19.4958L12.707 19.4958L12.707 19.4958L12.7071 19.4957L12.7071 19.4957L12.7071 19.4957L12.7072 19.4956L12.7072 19.4956L12.7072 19.4956L12.7072 19.4956L12.7073 19.4955L12.7073 19.4955L12.7073 19.4955L12.7074 19.4954L12.7074 19.4954L12.7074 19.4954L12.7074 19.4953L12.7075 19.4953L12.7075 19.4953L12.7075 19.4953L12.7076 19.4952L12.7076 19.4952L12.7076 19.4952L12.7077 19.4951L12.7077 19.4951L12.7077 19.4951L12.7077 19.4951L12.7078 19.495L12.7078 19.495L12.7078 19.495L12.7079 19.4949L12.7079 19.4949L12.7079 19.4949L12.7079 19.4948L12.708 19.4948L12.708 19.4948L12.708 19.4948L12.7081 19.4947L12.7081 19.4947L12.7081 19.4947L12.7082 19.4946L12.7082 19.4946L12.7082 19.4946L12.7082 19.4946L12.7083 19.4945L12.7083 19.4945L12.7083 19.4945L12.7084 19.4944L12.7084 19.4944L12.7084 19.4944L12.7084 19.4944L12.7085 19.4943L12.7085 19.4943L12.7085 19.4943L12.7086 19.4942L12.7086 19.4942L12.7086 19.4942L12.7086 19.4941L12.7087 19.4941L12.7087 19.4941L12.7087 19.4941L12.7088 19.494L12.7088 19.494L12.7088 19.494L12.7089 19.4939L12.7089 19.4939L12.7089 19.4939L12.7089 19.4939L12.709 19.4938L12.709 19.4938L12.709 19.4938L12.7091 19.4937L12.7091 19.4937L12.7091 19.4937L12.7091 19.4937L12.7092 19.4936L12.7092 19.4936L12.7092 19.4936L12.7093 19.4935L12.7093 19.4935L12.7093 19.4935L12.7093 19.4934L12.7094 19.4934L12.7094 19.4934L12.7094 19.4934L12.7095 19.4933L12.7095 19.4933L12.7095 19.4933L12.7095 19.4932L12.7096 19.4932L12.7096 19.4932L12.7096 19.4932L12.7097 19.4931L12.7097 19.4931L12.7097 19.4931L12.7098 19.493L12.7098 19.493L12.7098 19.493L12.7098 19.493L12.7099 19.4929L12.7099 19.4929L12.7099 19.4929L12.71 19.4928L12.71 19.4928L12.71 19.4928L12.71 19.4928L12.7101 19.4927L12.7101 19.4927L12.7101 19.4927L12.7102 19.4926L12.7102 19.4926L12.7102 19.4926L12.7102 19.4926L12.7103 19.4925L12.7103 19.4925L12.7103 19.4925L12.7104 19.4924L12.7104 19.4924L12.7104 19.4924L12.7104 19.4924L12.7105 19.4923L12.7105 19.4923L12.7105 19.4923L12.7105 19.4922L12.7106 19.4922L12.7106 19.4922L12.7106 19.4922L12.7107 19.4921L12.7107 19.4921L12.7107 19.4921L12.7107 19.492L12.7108 19.492L12.7108 19.492L12.7108 19.492L12.7109 19.4919L12.7109 19.4919L12.7109 19.4919L12.7109 19.4918L12.711 19.4918L12.711 19.4918L12.711 19.4918L12.7111 19.4917L12.7111 19.4917L12.7111 19.4917L12.7111 19.4917L12.7112 19.4916L12.7112 19.4916L12.7112 19.4916L12.7113 19.4915L12.7113 19.4915L12.7113 19.4915L12.7113 19.4915L12.7114 19.4914L12.7114 19.4914L12.7114 19.4914L12.7115 19.4913L12.7115 19.4913L12.7115 19.4913L12.7115 19.4913L12.7116 19.4912L12.7116 19.4912L12.7116 19.4912L12.7116 19.4911L12.7117 19.4911L12.7117 19.4911L12.7117 19.4911L12.7118 19.491L12.7118 19.491L12.7118 19.491L12.7118 19.491L12.7119 19.4909L12.7119 19.4909L12.7119 19.4909L12.7119 19.4908L12.712 19.4908L12.712 19.4908L12.712 19.4908L12.7121 19.4907L12.7121 19.4907L12.7121 19.4907L12.7121 19.4907L12.7122 19.4906L12.7122 19.4906L12.7122 19.4906L12.7123 19.4905L12.7123 19.4905L12.7123 19.4905L12.7123 19.4905L12.7124 19.4904L12.7124 19.4904L12.7124 19.4904L12.7124 19.4904L12.7125 19.4903L12.7125 19.4903L12.7125 19.4903L12.7126 19.4902L12.7126 19.4902L12.7126 19.4902L12.7126 19.4902L12.7127 19.4901L12.7127 19.4901L12.7127 19.4901L12.7127 19.4901L12.7128 19.49L12.7128 19.49L12.7128 19.49L12.7131 19.4897L19.3423 12.843L4.82016 11.8277ZM17.8045 5.11035L17.8045 5.11025C17.8229 4.70072 17.6567 4.29955 17.2703 3.9131C16.8813 3.5241 16.4418 3.32832 16.0181 3.34192C15.624 3.35484 15.2525 3.52602 14.9681 3.70812C14.8278 3.79792 14.7137 3.88723 14.6345 3.95424C14.595 3.98766 14.5645 4.01529 14.5441 4.03434C14.5339 4.04386 14.5262 4.05122 14.5212 4.05608L14.5135 4.06366L14.5135 4.06369L5.84009 12.7336C5.72101 12.8743 5.03481 13.7233 4.7137 14.8753C4.39093 16.0332 4.43517 17.4927 5.81821 18.8757C6.51474 19.5722 7.21305 19.9004 7.86678 20.0101C8.52342 20.1203 9.15357 20.0131 9.71442 19.8093C10.7856 19.4201 11.5696 18.6923 11.7409 18.5333C11.7477 18.527 11.7536 18.5216 11.7584 18.5171L18.3785 11.8796L18.3787 11.8794C18.6417 11.6164 19.0845 11.5805 19.3628 11.8589C19.6396 12.1357 19.607 12.5781 19.3426 12.8428L17.8045 5.11035ZM17.8045 5.11035C17.7861 5.52407 17.5893 5.92203 17.3795 6.22995C17.1789 6.52439 16.9829 6.71312 16.9686 6.72684C16.9682 6.72727 16.9679 6.72753 16.9678 6.72761L16.9678 6.72763L16.9678 6.72765L16.9678 6.72768L16.9677 6.7277L16.9677 6.72772L16.9677 6.72774L16.9677 6.72777L16.9676 6.72779L16.9676 6.72781L16.9676 6.72783L16.9676 6.72786L16.9676 6.72788L16.9675 6.7279L16.9675 6.72793L16.9675 6.72795L16.9675 6.72797L16.9674 6.728L16.9674 6.72802L16.9674 6.72804L16.9674 6.72807L16.9673 6.72809L16.9673 6.72812L16.9673 6.72814L16.9673 6.72816L16.9672 6.72819L16.9672 6.72821L16.9672 6.72824L16.9672 6.72826L16.9671 6.72829L16.9671 6.72831L16.9671 6.72834L16.9671 6.72836L16.967 6.72839L16.967 6.72841L16.967 6.72844L16.967 6.72846L16.9669 6.72849L16.9669 6.72852L16.9669 6.72854L16.9669 6.72857L16.9668 6.72859L16.9668 6.72862L16.9668 6.72865L16.9668 6.72867L16.9667 6.7287L16.9667 6.72873L16.9667 6.72875L16.9667 6.72878L16.9666 6.72881L16.9666 6.72883L16.9666 6.72886L16.9665 6.72889L16.9665 6.72891L16.9665 6.72894L16.9665 6.72897L16.9664 6.729L16.9664 6.72902L16.9664 6.72905L16.9664 6.72908L16.9663 6.72911L16.9663 6.72914L16.9663 6.72916L16.9662 6.72919L16.9662 6.72922L16.9662 6.72925L16.9662 6.72928L16.9661 6.72931L16.9661 6.72933L16.9661 6.72936L16.966 6.72939L16.966 6.72942L16.966 6.72945L16.966 6.72948L16.9659 6.72951L16.9659 6.72954L16.9659 6.72957L16.9658 6.7296L16.9658 6.72962L16.9658 6.72965L16.9658 6.72968L16.9657 6.72971L16.9657 6.72974L16.9657 6.72977L16.9656 6.7298L16.9656 6.72983L16.9656 6.72986L16.9655 6.72989L16.9655 6.72992L16.9655 6.72995L16.9655 6.72998L16.9654 6.73001L16.9654 6.73004L16.9654 6.73007L16.9653 6.7301L16.9653 6.73013L16.9653 6.73017L16.9652 6.7302L16.9652 6.73023L16.9652 6.73026L16.9651 6.73029L16.9651 6.73032L16.9651 6.73035L16.9651 6.73038L16.965 6.73041L16.965 6.73044L16.965 6.73047L16.9649 6.73051L16.9649 6.73054L16.9649 6.73057L16.9648 6.7306L16.9648 6.73063L16.9648 6.73066L16.9647 6.7307L16.9647 6.73073L16.9647 6.73076L16.9646 6.73079L16.9646 6.73082L16.9646 6.73085L16.9645 6.73089L16.9645 6.73092L16.9645 6.73095L16.9645 6.73098L16.9644 6.73101L16.9644 6.73105L16.9644 6.73108L16.9643 6.73111L16.9643 6.73114L16.9643 6.73117L16.9642 6.73121L16.9642 6.73124L16.9642 6.73127L16.9641 6.7313L16.9641 6.73134L16.9641 6.73137L16.964 6.7314L16.964 6.73143L16.964 6.73147L16.9639 6.7315L16.9639 6.73153L16.9639 6.73157L16.9638 6.7316L16.9638 6.73163L16.9638 6.73166L16.9637 6.7317L16.9637 6.73173L16.9637 6.73176L16.9636 6.7318L16.9636 6.73183L16.9636 6.73186L16.9635 6.7319L16.9635 6.73193L16.9635 6.73196L16.9634 6.73199L16.9634 6.73203L16.9634 6.73206L16.9633 6.73209L16.9633 6.73213L16.9633 6.73216L16.9632 6.73219L16.9632 6.73223L16.9632 6.73226L16.9631 6.73229L16.9631 6.73233L16.9631 6.73236L16.963 6.73239L16.963 6.73243L16.963 6.73246L16.9629 6.73249L16.9629 6.73253L16.9629 6.73256L16.9628 6.7326L16.9628 6.73263L16.9628 6.73266L16.9627 6.7327L16.9627 6.73273L16.9627 6.73276L16.9626 6.7328L16.9626 6.73283L16.9626 6.73286L16.9625 6.7329L16.9625 6.73293L16.9625 6.73296L16.9624 6.733L16.9624 6.73303L16.9624 6.73307L16.9623 6.7331L16.9623 6.73313L16.9623 6.73317L16.9622 6.7332L16.9622 6.73323L16.9622 6.73327L16.9621 6.7333L16.9621 6.73334L16.9621 6.73337L16.962 6.7334L16.962 6.73344L16.962 6.73347L16.9619 6.7335L16.9619 6.73354L16.9619 6.73357L16.9618 6.7336L16.9618 6.73364L16.9618 6.73367L16.9617 6.73371L16.9617 6.73374L16.9617 6.73377L16.9616 6.73381L16.9616 6.73384L16.9616 6.73387L16.9615 6.73391L16.9615 6.73394L16.9615 6.73397L16.9614 6.73401L16.9614 6.73404L16.9614 6.73407L16.9613 6.73411L16.9613 6.73414L16.9613 6.73418L16.9612 6.73421L16.9612 6.73424L16.9612 6.73428L16.9611 6.73431L16.9611 6.73434L16.9611 6.73438L16.961 6.73441L16.961 6.73444L16.961 6.73448L16.9609 6.73451L16.9609 6.73454L16.9609 6.73458L16.9608 6.73461L16.9608 6.73464L16.9608 6.73467L16.9607 6.73471L16.9607 6.73474L16.9607 6.73477L16.9606 6.73481L16.9606 6.73484L16.9606 6.73487L16.9605 6.73491L16.9605 6.73494L16.9605 6.73497L16.9604 6.735L16.9604 6.73504L16.9604 6.73507L16.9603 6.7351L16.9603 6.73514L16.9603 6.73517L16.9602 6.7352L16.9602 6.73523L16.9602 6.73527L16.9601 6.7353L16.9601 6.73533L16.9601 6.73536L16.96 6.7354L16.96 6.73543L16.96 6.73546L16.9599 6.73549L16.9599 6.73552L16.9599 6.73556L16.9598 6.73559L16.9598 6.73562L16.9598 6.73565L16.9597 6.73569L16.9597 6.73572L16.9597 6.73575L16.9597 6.73578L16.9596 6.73581L16.9596 6.73584L16.9596 6.73588L16.9595 6.73591L16.9595 6.73594L16.9595 6.73597L16.9594 6.736L16.9594 6.73603L16.9594 6.73607L16.9593 6.7361L16.9593 6.73613L16.9593 6.73616L16.9592 6.73619L16.9592 6.73622L16.9592 6.73625L16.9592 6.73628L16.9591 6.73631L16.9591 6.73635L16.9591 6.73638L16.959 6.73641L16.959 6.73644L16.959 6.73647L16.9589 6.7365L16.9589 6.73653L16.9589 6.73656L16.9588 6.73659L16.9588 6.73662L16.9588 6.73665L16.9588 6.73668L16.9587 6.73671L16.9587 6.73674L16.9587 6.73677L16.9586 6.7368L16.9586 6.73683L16.9586 6.73686L16.9585 6.73689L16.9585 6.73692L16.9585 6.73695L16.9585 6.73698L16.9584 6.73701L16.9584 6.73704L16.9584 6.73707L16.9583 6.7371L16.9583 6.73712L16.9583 6.73715L16.9583 6.73718L16.9582 6.73721L16.9582 6.73724L16.9582 6.73727L16.9581 6.7373L16.9581 6.73733L16.9581 6.73735L16.9581 6.73738L16.958 6.73741L16.958 6.73744L16.958 6.73747L16.9579 6.73749L16.9579 6.73752L16.9579 6.73755L16.9579 6.73758L16.9578 6.73761L16.9578 6.73763L16.9578 6.73766L16.9577 6.73769L16.9577 6.73772L16.9577 6.73774L16.9577 6.73777L16.9576 6.7378L16.9576 6.73782L16.9576 6.73785L16.9576 6.73788L16.9575 6.7379L16.9575 6.73793L16.9575 6.73796L16.9575 6.73798L16.9574 6.73801L16.9574 6.73804L16.9574 6.73806L16.9573 6.73809L16.9573 6.73811L16.9573 6.73814L16.9573 6.73816L16.9572 6.73819L16.9572 6.73822L16.9572 6.73824L16.9572 6.73827L16.9571 6.73829L16.9571 6.73832L16.9571 6.73834L16.9571 6.73837L16.957 6.73839L16.957 6.73841L16.957 6.73844L16.957 6.73846L16.9569 6.73849L16.9569 6.73851L16.9569 6.73854L16.9569 6.73856L16.9569 6.73858L16.9568 6.73861L16.9568 6.73863L16.9568 6.73865L16.9568 6.73868L16.9567 6.7387L16.9567 6.73872L16.9567 6.73875L16.9567 6.73877L16.9566 6.73879L16.9566 6.73882L16.9566 6.73884L16.9566 6.73886L16.9566 6.73888L16.9565 6.7389L16.9565 6.73893L16.9565 6.73895L16.9565 6.73897L16.9564 6.73899L16.9564 6.73901L16.9564 6.73903L16.9564 6.73906L16.9564 6.73908L16.9563 6.7391L16.9563 6.73912L16.9563 6.73914L16.9563 6.73916L16.9563 6.73918L16.9562 6.7392L16.9562 6.73922L16.9562 6.73924L16.9562 6.73926L16.9562 6.73928L16.9561 6.7393L16.9561 6.73932L16.9561 6.73934L16.9561 6.73936L16.9561 6.73938L16.956 6.7394L16.956 6.73942L16.956 6.73943L16.956 6.73945L16.956 6.73947L16.9559 6.73949L16.9559 6.73951L16.9559 6.73953L16.9559 6.73954L16.9559 6.73956L16.9559 6.73958L16.9558 6.7396L16.9558 6.73961L16.9558 6.73963L16.9558 6.73965L16.9558 6.73966L16.9558 6.73968L16.9557 6.7397L16.9557 6.73971L16.9557 6.73973L16.9557 6.73975L16.9557 6.73976L16.9557 6.73978L16.9556 6.73979L16.9556 6.73981L16.9556 6.73982L16.9556 6.73984L16.9556 6.73985L16.9556 6.73987L16.9556 6.73988L16.9555 6.7399L16.9555 6.73991L16.9555 6.73993L16.9555 6.73994L16.9555 6.73995L16.9555 6.73997L16.9555 6.73998L16.9554 6.73999L16.9554 6.74001L16.9554 6.74002L16.9554 6.74003L16.9554 6.74005L16.9554 6.74006L16.9554 6.74007L16.9554 6.74008L16.9553 6.7401L16.9553 6.74011L16.9553 6.74012L16.9553 6.74013L16.9553 6.74014L16.9553 6.74015L16.9553 6.74016L16.9553 6.74018L16.9552 6.74019L16.9552 6.7402L16.9552 6.74021L16.9552 6.74022L16.9552 6.74023L16.9552 6.74024L16.9552 6.74025L16.9552 6.74026L16.9552 6.74026L16.9552 6.74027L16.9552 6.74028L16.9551 6.74029L16.9551 6.7403L16.9551 6.74031L16.9551 6.74032L16.9551 6.74032L16.9551 6.74033L16.9551 6.74034L16.9551 6.74035L16.9551 6.74035L16.9551 6.74036L16.9551 6.74037L16.9551 6.74038L16.9551 6.74038L16.955 6.74039L16.955 6.74039L16.955 6.7404L16.955 6.74041L16.955 6.74041L16.955 6.74042L16.955 6.74042L16.955 6.74043L16.955 6.74043L16.955 6.74044L16.955 6.74044L16.955 6.74044L16.955 6.74045L16.955 6.74045L16.955 6.74046L16.955 6.74046L16.955 6.74046L16.955 6.74047L16.955 6.74047L16.955 6.74047L16.955 6.74048L16.955 6.74048L16.9549 6.74049L9.44651 14.2489C9.18046 14.515 9.15503 14.9547 9.42969 15.2294C9.70435 15.504 10.1441 15.4786 10.4101 15.2126L17.911 7.7117M17.8045 5.11035L17.911 7.7117M17.911 7.7117C17.9787 7.64696 18.2756 7.35504 18.5661 6.91052C18.8587 6.46279 19.1561 5.8429 19.1899 5.13305L17.911 7.7117Z" fill="#999999" stroke="#999999" stroke-width="0.5"/>
</svg>
