<svg width="1392" height="220" viewBox="0 0 1392 220" fill="none" xmlns="http://www.w3.org/2000/svg">
<mask id="path-1-inside-1_461_25474" fill="white">
<path d="M0 0H184.779V60H0V0Z"/>
</mask>
<path d="M0 0H184.779V60H0V0Z" fill="#F8F8F8"/>
<path d="M0 1H184.779V-1H0V1ZM184.779 59H0V61H184.779V59Z" fill="#DDDDDD" mask="url(#path-1-inside-1_461_25474)"/>
<mask id="path-3-inside-2_461_25474" fill="white">
<path d="M1207.22 0H1392V60H1207.22V0Z"/>
</mask>
<path d="M1207.22 0H1392V60H1207.22V0Z" fill="#F8F8F8"/>
<path d="M1207.22 0V-1H1206.22V0H1207.22ZM1207.22 60H1206.22V61H1207.22V60ZM1207.22 1H1392V-1H1207.22V1ZM1392 59H1207.22V61H1392V59ZM1208.22 60V0H1206.22V60H1208.22Z" fill="#DDDDDD" mask="url(#path-3-inside-2_461_25474)"/>
<mask id="path-5-inside-3_461_25474" fill="white">
<path d="M533.805 0H1207.22V60H533.805V0Z"/>
</mask>
<path d="M533.805 0H1207.22V60H533.805V0Z" fill="#F8F8F8"/>
<path d="M533.805 0V-1H532.805V0H533.805ZM533.805 60H532.805V61H533.805V60ZM533.805 1H1207.22V-1H533.805V1ZM1207.22 59H533.805V61H1207.22V59ZM534.805 60V0H532.805V60H534.805Z" fill="#DDDDDD" mask="url(#path-5-inside-3_461_25474)"/>
<mask id="path-7-inside-4_461_25474" fill="white">
<path d="M185 0H534.027V60H185V0Z"/>
</mask>
<path d="M185 0H534.027V60H185V0Z" fill="#F8F8F8"/>
<path d="M185 0V-1H184V0H185ZM185 60H184V61H185V60ZM185 1H534.027V-1H185V1ZM534.027 59H185V61H534.027V59ZM186 60V0H184V60H186Z" fill="#DDDDDD" mask="url(#path-7-inside-4_461_25474)"/>
<path d="M75.2195 23.2707V30.3978H76.9598V23.2707H75.2195ZM72.9433 26.9116C72.9377 25.0497 71.3466 23.7238 69.2084 23.7182C67.0482 23.7238 65.4515 25.0497 65.4571 26.9116C65.4515 28.7735 67.0482 30.0884 69.2084 30.0939C71.3466 30.0884 72.9377 28.7735 72.9433 26.9116ZM67.1477 26.9116C67.1366 25.8343 68.0151 25.1492 69.2084 25.1547C70.3908 25.1492 71.2582 25.8343 71.2582 26.9116C71.2582 28 70.3908 28.6851 69.2084 28.6851C68.0151 28.6851 67.1366 28 67.1477 26.9116ZM69.3189 34.7072H76.9598V31.0166H67.5841V32.3702H75.2305V33.4254H67.6283V37.2155H77.3852V35.8398H69.3189V34.7072ZM90.8598 33.6851V23.2818H89.125V25.5028H86.6498V26.895H89.125V28.6685H86.6498V30.0718H89.125V33.6851H90.8598ZM86.4012 30.1326C84.8211 30.4033 83.4565 30.4807 81.3183 30.4917V28.6409H85.7824V24.2541H79.5559V25.6464H84.031V27.3204H79.578V31.895H80.6443C83.2355 31.895 84.7714 31.8564 86.5891 31.5414L86.4012 30.1326ZM83.2189 32.9061H81.4896V37.0773H91.2355V35.6575H83.2189V32.9061ZM102.953 28.5028V33.7017H104.688V23.2818H102.953V27.0994H100.113V24.2099H98.3951V26.4862H95.2404V24.2099H93.4945V31.4144H100.113V28.5028H102.953ZM95.2404 30.0331V27.8232H98.3951V30.0331H95.2404ZM97.1354 32.674H95.3785V37.116H104.997V35.7072H97.1354V32.674ZM113.969 25.1547V23.4475H112.245V25.1547H107.267V26.558H118.941V25.1547H113.969ZM113.969 32.7293C116.378 32.5359 117.864 31.558 117.864 30C117.864 28.2928 116.013 27.2818 113.102 27.2873C110.162 27.2818 108.334 28.2928 108.345 30C108.334 31.558 109.809 32.5414 112.245 32.7293V34.4641H106.687V35.8729H119.599V34.4641H113.969V32.7293ZM110.124 30C110.113 29.1105 111.19 28.6464 113.102 28.6464C114.991 28.6464 116.08 29.1105 116.08 30C116.08 30.9061 114.991 31.3646 113.102 31.3702C111.19 31.3646 110.113 30.9061 110.124 30Z" fill="#222222"/>
<path d="M816.003 23.2818V33.5359H817.743V23.2818H816.003ZM810.5 28.7459C811.141 30.0884 812.301 31.1547 813.909 31.6685L814.798 30.3039C812.549 29.6188 811.351 27.895 811.351 26.1381V25.7348H814.323V24.337H806.549V25.7348H809.588V26.1381C809.583 28 808.367 29.8287 806.091 30.5746L806.991 31.9448C808.66 31.3757 809.859 30.2099 810.5 28.7459ZM810.152 32.5856H808.4V37.116H818.141V35.7072H810.152V32.5856ZM830.958 23.2707H829.212V33.4807H830.958V28.674H832.941V27.2376H830.958V23.2707ZM827.93 29.232C826.256 29.5856 824.786 29.6685 822.135 29.674V25.8343H826.737V24.4365H820.405V31.0884H821.554C824.632 31.0939 826.278 31.0055 828.123 30.6409L827.93 29.232ZM821.908 32.4088V37.116H831.51V35.7072H823.637V32.4088H821.908ZM848.583 23.2707H846.837V33.4807H848.583V28.674H850.566V27.2376H848.583V23.2707ZM845.555 29.232C843.881 29.5856 842.411 29.6685 839.76 29.674V25.8343H844.362V24.4365H838.03V31.0884H839.179C842.257 31.0939 843.903 31.0055 845.748 30.6409L845.555 29.232ZM839.533 32.4088V37.116H849.135V35.7072H841.262V32.4088H839.533ZM861.803 37.3812H863.444V23.2707H861.803V37.3812ZM857.234 27.0608C857.333 26.3923 857.383 25.7017 857.383 24.9889H851.875V26.3978H855.654C855.394 29.2376 854.041 31.442 851.118 33.1768L852.146 34.4088C854.792 32.8343 856.262 30.8232 856.93 28.4751H858.88V30.5856H856.676V31.9945H858.88V36.7238H860.532V23.6133H858.88V27.0608H857.234ZM875.189 29.0276V30.5691H876.919V23.2707H875.189V25.1381H872.349V23.8895H870.631V25.6685H867.477V23.8895H865.731V30.1105H872.349V29.0276H875.189ZM875.189 27.6961H872.349V26.453H875.189V27.6961ZM867.477 28.7348V26.9945H870.631V28.7348H867.477ZM869.366 34.7735H876.919V31.1492H867.609V32.4972H875.189V33.4862H867.626V37.2155H877.372V35.8398H869.366V34.7735ZM884.046 30.1934C886.427 29.8453 888.289 28.7459 889.157 27.2155C890.013 28.7459 891.892 29.8453 894.289 30.1934L894.93 28.8287C892.129 28.4696 890.278 26.9834 890.162 25.4309H894.405V24.0608H883.897V25.4309H888.157C888.019 26.9834 886.162 28.4696 883.394 28.8287L884.046 30.1934ZM882.72 31.1381V32.5414H888.262V37.3812H889.98V32.5414H895.588V31.1381H882.72ZM906.482 30.6409C907.576 29.989 908.239 28.9945 908.239 27.7624C908.239 25.5138 906.018 24.0276 902.974 24.0221C899.93 24.0276 897.725 25.5138 897.731 27.7624C897.725 29.0166 898.405 30.0276 899.532 30.674V34.2486H896.548V35.674H909.46V34.2486H906.482V30.6409ZM902.974 25.4088C905.073 25.4033 906.532 26.2928 906.532 27.7624C906.532 29.2099 905.073 30.1326 902.974 30.1326C900.858 30.1326 899.432 29.2099 899.432 27.7624C899.432 26.2928 900.858 25.4033 902.974 25.4088ZM901.25 31.3094C901.786 31.4254 902.361 31.4862 902.974 31.4862C903.598 31.4862 904.184 31.4254 904.725 31.3094V34.2486H901.25V31.3094ZM920.83 28.8232H919.266V23.5359H917.636V36.6796H919.266V30.2431H920.83V37.3812H922.504V23.2707H920.83V28.8232ZM912.73 24.884H910.99V33.8674H911.929C913.415 33.8729 915.034 33.7735 916.946 33.4365L916.763 31.9282C915.277 32.2155 913.946 32.3204 912.73 32.3425V24.884ZM934.028 28.2762C935.105 27.8232 935.713 27.1105 935.713 26.1823C935.713 24.4972 933.741 23.5028 930.63 23.4972C927.509 23.5028 925.536 24.4972 925.542 26.1823C925.536 27.105 926.138 27.8122 927.199 28.2652V30.0608H924.205V31.453H937.072V30.0608H934.028V28.2762ZM930.63 24.8398C932.707 24.8398 933.928 25.3204 933.928 26.1823C933.928 27.0497 932.707 27.5083 930.63 27.5083C928.542 27.5083 927.332 27.0497 927.343 26.1823C927.332 25.3204 928.542 24.8398 930.63 24.8398ZM928.951 28.7182C929.464 28.7845 930.022 28.8232 930.63 28.8232C931.232 28.8232 931.79 28.7845 932.299 28.7182V30.0608H928.951V28.7182ZM930.619 32.3039C927.542 32.2983 925.702 33.1989 925.702 34.8232C925.702 36.4696 927.542 37.3646 930.619 37.3591C933.663 37.3646 935.509 36.4696 935.514 34.8232C935.509 33.1989 933.663 32.2983 930.619 32.3039ZM930.619 36.0442C928.569 36.0552 927.459 35.6243 927.47 34.8232C927.459 34.0387 928.569 33.6298 930.619 33.6188C932.647 33.6298 933.768 34.0387 933.779 34.8232C933.768 35.6243 932.647 36.0552 930.619 36.0442Z" fill="#222222"/>
<path d="M1283.39 37.3812H1285.14V23.2707H1283.39V37.3812ZM1274.17 24.768V26.1436H1279.17C1278.86 29.3591 1277.14 31.7403 1273.45 33.4972L1274.36 34.8895C1279.3 32.5414 1280.93 28.9724 1280.93 24.768H1274.17ZM1298.33 23.2707H1296.56V33.453H1298.33V28.7735H1300.3V27.3315H1298.33V23.2707ZM1294.49 24.337H1287.73V25.7624H1292.58C1292.28 27.9171 1290.36 29.674 1287.13 30.6133L1287.86 31.9945C1292.03 30.768 1294.48 28.0939 1294.49 24.337ZM1289.25 32.4144V37.116H1298.86V35.7072H1291V32.4144H1289.25ZM1302 31.3812C1302 34.1436 1302.73 36.4365 1304.19 38.4033H1306.05C1304.94 36.9448 1304.06 34.0055 1304.06 31.3812C1304.06 28.7624 1304.94 25.8177 1306.05 24.3591H1304.19C1302.73 26.326 1302 28.6243 1302 31.3812ZM1308.32 30.1934C1310.7 29.8453 1312.56 28.7459 1313.43 27.2155C1314.29 28.7459 1316.17 29.8453 1318.56 30.1934L1319.2 28.8287C1316.4 28.4696 1314.55 26.9834 1314.44 25.4309H1318.68V24.0608H1308.17V25.4309H1312.43C1312.29 26.9834 1310.44 28.4696 1307.67 28.8287L1308.32 30.1934ZM1306.99 31.1381V32.5414H1312.54V37.3812H1314.25V32.5414H1319.86V31.1381H1306.99ZM1324.87 31.3812C1324.87 28.6243 1324.14 26.326 1322.68 24.3591H1320.82C1321.93 25.8177 1322.81 28.7624 1322.81 31.3812C1322.81 34.0055 1321.93 36.9448 1320.82 38.4033H1322.68C1324.14 36.4365 1324.87 34.1436 1324.87 31.3812Z" fill="#222222"/>
<path d="M357.213 30.1492C357.589 28.1547 357.589 26.7072 357.589 25.3867V24.1271H347.821V25.5249H355.86C355.86 26.7901 355.843 28.2265 355.457 30.1492H346.296V31.5635H351.805V37.4033H353.556V31.5635H359.164V30.1492H357.213ZM369.605 23.7182V25.3094H363.506V23.7182H361.787V29.4641H371.334V23.7182H369.605ZM363.506 28.0884V26.6077H369.605V28.0884H363.506ZM360.108 31.9669H365.848V34.3978H367.566V31.9669H373.02V30.5856H360.108V31.9669ZM361.671 33.2265V37.116H371.594V35.7072H363.395V33.2265H361.671Z" fill="#222222"/>
<mask id="path-13-inside-5_461_25474" fill="white">
<path d="M0 60H184.779V140H0V60Z"/>
</mask>
<path d="M0 60H184.779V140H0V60Z" fill="white"/>
<path d="M184.779 139H0V141H184.779V139Z" fill="#DDDDDD" mask="url(#path-13-inside-5_461_25474)"/>
<mask id="path-15-inside-6_461_25474" fill="white">
<path d="M534 60H1207.42V140H534V60Z"/>
</mask>
<path d="M534 60H1207.42V140H534V60Z" fill="white"/>
<path d="M534 140H533V141H534V140ZM1207.42 139H534V141H1207.42V139ZM535 140V60H533V140H535Z" fill="#DDDDDD" mask="url(#path-15-inside-6_461_25474)"/>
<path d="M92.5277 94.6851L89.7101 96.5635V97.9779L92.4614 96.1547H92.5277V106H93.9421V94.6851H92.5277Z" fill="#222222"/>
<path d="M574.807 93.3923V103.58H576.033V93.3923H574.807ZM568.972 98.4033C569.597 99.8674 570.884 101.011 572.497 101.558L573.127 100.586C571.05 99.9227 569.569 98.232 569.569 96.3536V95.547H572.762V94.5414H565.083V95.547H568.331V96.3536C568.32 98.3315 566.851 100.133 564.762 100.862L565.403 101.845C567.061 101.238 568.359 99.989 568.972 98.4033ZM568.287 102.608H567.061V106.961H576.464V105.945H568.287V102.608ZM589.254 93.3702H588.027V103.436H589.254V98.5414H591.353V97.5138H589.254V93.3702ZM586.502 99.4807C584.646 99.8619 583.055 99.9448 580.27 99.9337V95.6022H585.231V94.5856H579.055V100.961H580.126C583.044 100.972 584.701 100.873 586.657 100.497L586.502 99.4807ZM580.557 102.42V106.961H589.894V105.945H581.773V102.42H580.557ZM606.932 107.271H608.103V93.3812H606.932V107.271ZM601.948 98.8619V99.9006H604.136V106.541H605.296V93.7127H604.136V98.8619H601.948ZM600.302 96.9724H602.909V95.9558H600.313V93.8895H599.141V95.9558H596.501V96.9724H599.141V97.6575C599.13 99.9558 598.014 102.387 596.125 103.492L596.865 104.42C598.246 103.58 599.241 102.022 599.738 100.238C600.241 101.917 601.241 103.354 602.622 104.11L603.329 103.193C601.44 102.177 600.302 99.8895 600.302 97.6575V96.9724ZM611.213 99.0276L611.39 100.044L619.87 99.5912C619.793 100.669 619.638 101.829 619.334 103.16L620.561 103.271C621.146 100.453 621.146 98.5635 621.146 96.5193V94.7956H611.588V95.8232H619.953V96.5193C619.948 97.232 619.948 97.9337 619.92 98.6685L611.213 99.0276ZM610.064 105.315H622.727V104.287H610.064V105.315ZM634.146 107.293H635.361V93.3812H634.146V107.293ZM625.958 99.6133H631.14V94.674H624.676V95.6906H629.903V98.6077H624.698V103.923H625.859C628.256 103.923 630.367 103.823 632.919 103.414L632.798 102.387C630.312 102.79 628.262 102.89 625.958 102.895V99.6133ZM644.013 97.3867C644.913 99.4309 647.118 100.917 649.211 101.403L649.786 100.376C647.366 99.9227 644.648 97.8011 644.648 95.4254V94.3536H643.366V95.4254C643.355 97.8122 640.659 99.9116 638.25 100.376L638.814 101.403C640.913 100.912 643.112 99.4199 644.013 97.3867ZM637.72 105.381H650.438V104.354H637.72V105.381ZM654.432 100.884V98.663H662.343V97.6685H654.432V95.6022H662.642V94.5856H653.194V101.89H662.797V100.884H654.432ZM651.548 105.459H664.266V104.431H651.548V105.459ZM667.011 95.8343V98.7845H676.68V97.8895H668.227V96.674H676.437V93.8011H666.967V94.6851H675.21V95.8343H667.011ZM665.354 100.796H678.072V99.8343H665.354V100.796ZM676.481 104.862V101.912H666.89V102.829H675.266V104.011H666.912V107.083H676.934V106.188H668.138V104.862H676.481ZM688.148 94.442V93.2486H686.921V94.442H683.507V95.326H691.551V94.442H688.148ZM694.06 93.3812H692.833V101.58H694.06V97.9889H696.137V96.9392H694.06V93.3812ZM691.971 99.9116C690.756 100.083 689.446 100.182 688.148 100.243V99.4254C689.761 99.2928 690.767 98.6409 690.778 97.5912C690.767 96.453 689.496 95.7901 687.518 95.7901C685.54 95.7901 684.258 96.453 684.27 97.5912C684.258 98.6519 685.286 99.2983 686.921 99.4254V100.293C685.562 100.331 684.264 100.331 683.153 100.331L683.297 101.249C685.739 101.249 689.076 101.227 692.071 100.729L691.971 99.9116ZM685.441 97.5912C685.43 96.9834 686.236 96.6188 687.518 96.6077C688.8 96.6188 689.607 96.9834 689.607 97.5912C689.607 98.221 688.8 98.6188 687.518 98.6188C686.236 98.6188 685.43 98.221 685.441 97.5912ZM694.06 104.994V102.21H685.01V103.083H692.844V104.177H685.043V107.116H694.59V106.232H686.258V104.994H694.06ZM706.562 98.2818C707.656 97.8564 708.274 97.1492 708.274 96.221C708.274 94.5856 706.396 93.6464 703.368 93.6464C700.33 93.6464 698.451 94.5856 698.451 96.221C698.451 97.1547 699.076 97.8619 700.186 98.2928V100.254H697.048V101.26H709.711V100.254H706.562V98.2818ZM699.722 96.221C699.711 95.2155 701.103 94.6077 703.368 94.6077C705.622 94.6077 707.026 95.2155 707.026 96.221C707.026 97.2376 705.622 97.8232 703.368 97.8232C701.103 97.8232 699.711 97.2376 699.722 96.221ZM701.413 98.6188C701.993 98.7238 702.65 98.7735 703.368 98.7735C704.098 98.7735 704.761 98.7182 705.346 98.6133V100.254H701.413V98.6188ZM703.368 102.331C700.363 102.32 698.573 103.193 698.573 104.773C698.573 106.365 700.363 107.238 703.368 107.238C706.352 107.238 708.142 106.365 708.153 104.773C708.142 103.193 706.352 102.32 703.368 102.331ZM703.368 106.276C701.147 106.287 699.81 105.724 699.821 104.773C699.81 103.834 701.147 103.282 703.368 103.271C705.578 103.282 706.915 103.834 706.926 104.773C706.915 105.724 705.578 106.287 703.368 106.276ZM721.627 99.105V93.3812H720.412V107.271H721.627V100.133H723.948V99.105H721.627ZM714.368 93.547V95.6133H710.799V96.6298H719.064V95.6133H715.594V93.547H714.368ZM714.998 97.779C713.02 97.779 711.583 99.0939 711.594 100.972C711.583 102.851 713.02 104.155 714.998 104.155C716.964 104.155 718.39 102.851 718.401 100.972C718.39 99.0939 716.964 97.779 714.998 97.779ZM714.998 103.116C713.705 103.127 712.754 102.232 712.766 100.972C712.754 99.7127 713.705 98.8066 714.998 98.8066C716.279 98.8066 717.219 99.7127 717.23 100.972C717.219 102.232 716.279 103.127 714.998 103.116ZM735.003 96.4862H731.351C730.754 95.2044 729.715 94.4586 728.439 94.453C726.384 94.4641 724.947 96.3425 724.958 99.2928C724.947 102.254 726.384 104.133 728.439 104.133C729.782 104.133 730.859 103.309 731.439 101.901H735.003V107.293H736.218V93.3812H735.003V96.4862ZM728.439 103.039C727.069 103.039 726.13 101.558 726.13 99.2928C726.13 97.0387 727.069 95.558 728.439 95.547C729.798 95.558 730.748 97.0387 730.748 99.2928C730.748 101.558 729.798 103.039 728.439 103.039ZM731.748 100.884C731.853 100.398 731.909 99.8674 731.909 99.2928C731.909 98.6464 731.837 98.0497 731.704 97.5138H735.003V100.884H731.748ZM748.841 97.3867C749.741 99.4309 751.946 100.917 754.04 101.403L754.614 100.376C752.194 99.9227 749.476 97.8011 749.476 95.4254V94.3536H748.194V95.4254C748.183 97.8122 745.487 99.9116 743.078 100.376L743.642 101.403C745.741 100.912 747.94 99.4199 748.841 97.3867ZM742.548 105.381H755.266V104.354H742.548V105.381ZM767.127 98.9282V93.3812H765.901V107.271H767.127V99.9779H769.448V98.9282H767.127ZM763.359 103.735V94.7845H756.951V103.735H763.359ZM762.133 95.768V102.729H758.144V95.768H762.133ZM773.088 100.884V98.663H781V97.6685H773.088V95.6022H781.298V94.5856H771.851V101.89H781.453V100.884H773.088ZM770.204 105.459H782.922V104.431H770.204V105.459ZM793.855 95.2707C793.855 96.3536 793.855 97.3812 793.48 98.8177L794.684 98.9503C795.071 97.5138 795.071 96.3867 795.071 95.2707V94.0884H785.546V95.0939H793.855V95.2707ZM790.485 97.1713H789.281V99.8564H784.043V100.862H796.684V99.8564H790.485V97.1713ZM790.309 102.155C787.336 102.155 785.447 103.094 785.447 104.707C785.447 106.298 787.336 107.238 790.309 107.238C793.292 107.238 795.181 106.298 795.193 104.707C795.181 103.094 793.292 102.155 790.309 102.155ZM790.309 106.265C788.099 106.265 786.662 105.669 786.673 104.707C786.662 103.713 788.099 103.105 790.309 103.094C792.53 103.105 793.955 103.713 793.966 104.707C793.955 105.669 792.53 106.265 790.309 106.265ZM808.722 93.3812H807.496V101.768H808.722V97.9558H810.811V96.9282H808.722V93.3812ZM801.982 98.0663C802.579 99.4586 803.789 100.564 805.385 101.094L805.971 100.133C803.927 99.4586 802.568 97.8343 802.568 96.011V95.4254H805.684V94.4088H798.181V95.4254H801.352V96.0221C801.341 98.0221 799.894 99.8122 797.805 100.519L798.435 101.503C800.104 100.901 801.385 99.6575 801.982 98.0663ZM804.269 102.144C801.407 102.144 799.662 103.072 799.662 104.674C799.662 106.298 801.407 107.238 804.269 107.238C807.12 107.238 808.844 106.298 808.844 104.674C808.844 103.072 807.12 102.144 804.269 102.144ZM804.269 106.254C802.17 106.254 800.877 105.669 800.888 104.674C800.877 103.702 802.17 103.127 804.269 103.127C806.369 103.127 807.65 103.702 807.65 104.674C807.65 105.669 806.369 106.254 804.269 106.254ZM822.047 96.4088C822.936 98.116 825.074 99.3149 827.24 99.6796L827.737 98.674C825.229 98.3204 822.677 96.6298 822.677 94.674V93.8785H821.406V94.674C821.406 96.663 818.864 98.3204 816.356 98.674L816.864 99.6796C819.025 99.3149 821.163 98.1271 822.047 96.4088ZM815.704 101.204V102.232H821.406V107.271H822.61V102.232H828.367V101.204H815.704ZM830.77 99.5138C833.018 99.1878 835.107 98.0718 835.864 96.4475C836.615 98.0718 838.709 99.1878 840.958 99.5138L841.433 98.5414C838.98 98.2099 836.648 96.8177 836.659 95.116V95.0829H841.057V94.0773H830.693V95.0829H835.068V95.116C835.068 96.8177 832.759 98.2099 830.306 98.5414L830.77 99.5138ZM829.51 101.547H835.355V104.387H836.571V101.547H842.228V100.53H829.51V101.547ZM831.146 103.006V106.961H840.814V105.945H832.372V103.006H831.146ZM848.289 94.6519V93.2707H847.062V94.6519H843.648V95.5912H851.692V94.6519H848.289ZM854.2 97.5912V93.3923H852.974V102.696H854.2V98.6188H856.278V97.5912H854.2ZM852.112 100.84C850.896 101.022 849.587 101.127 848.289 101.193V100.215C849.896 100.061 850.907 99.3149 850.918 98.1768C850.907 96.9061 849.626 96.1215 847.659 96.1326C845.703 96.1215 844.399 96.9061 844.41 98.1768C844.399 99.326 845.443 100.072 847.062 100.215V101.238C845.703 101.282 844.405 101.282 843.294 101.282L843.438 102.287C845.88 102.287 849.206 102.265 852.211 101.735L852.112 100.84ZM845.581 98.1768C845.57 97.4365 846.377 96.9834 847.659 96.9945C848.941 96.9834 849.747 97.4365 849.747 98.1768C849.747 98.895 848.941 99.3923 847.659 99.3812C846.377 99.3923 845.57 98.895 845.581 98.1768ZM852.974 104.376V107.271H854.2V103.392H845.007V104.376H852.974ZM867.432 93.3923V103.547H868.658V93.3923H867.432ZM861.155 101.182C863.233 101.193 864.791 99.7901 864.791 97.768C864.791 95.768 863.233 94.3646 861.155 94.3646C859.078 94.3646 857.509 95.768 857.509 97.768C857.509 99.7901 859.078 101.193 861.155 101.182ZM858.713 97.768C858.702 96.4088 859.752 95.4365 861.155 95.4365C862.537 95.4365 863.597 96.4088 863.597 97.768C863.597 99.1492 862.537 100.11 861.155 100.11C859.752 100.11 858.702 99.1492 858.713 97.768ZM860.912 102.508H859.686V106.961H869.089V105.945H860.912V102.508ZM871.79 104.939L870.928 109.193H872.088L873.293 104.939H871.79ZM889.363 107.293H890.589V93.3812H889.363V107.293ZM881.285 95.7348H886.655V94.7072H880.048V103.845H881.175C883.981 103.834 885.816 103.746 887.97 103.359L887.838 102.32C885.755 102.702 883.987 102.785 881.285 102.785V95.7348ZM903.191 107.271H904.417V93.3812H903.191V107.271ZM897.942 95.8343H901.246V94.8066H893.423V95.8343H896.705V97.6464C896.694 100.044 894.959 102.674 892.97 103.624L893.699 104.597C895.285 103.801 896.688 102.033 897.34 100C897.992 101.917 899.39 103.514 901.014 104.254L901.699 103.282C899.655 102.398 897.942 100 897.942 97.6464V95.8343ZM918.301 100.884V93.3812H917.085V96.5746H914.411V97.5801H917.085V100.884H918.301ZM914.555 98.9834C912.765 99.2873 911.295 99.337 908.732 99.337V97.6906H913.439V96.7293H908.732V95.2486H913.814V94.232H907.516V100.331H908.533C911.251 100.331 912.787 100.298 914.665 99.9779L914.555 98.9834ZM910.544 104.729H918.301V101.514H909.295V102.497H917.085V103.801H909.328V107.116H918.831V106.133H910.544V104.729ZM929.249 94.8177V93.2597H928.034V94.8177H924.653V95.8232H932.52V94.8177H929.249ZM934.929 96.8066H932.509V97.8011H934.929V99.4033H932.498V100.431H934.929V102.188H936.155V93.3812H934.929V96.8066ZM931.802 99.1934C931.791 97.6354 930.476 96.6077 928.631 96.5967C926.774 96.6077 925.47 97.6354 925.481 99.1934C925.47 100.729 926.774 101.779 928.631 101.79C930.476 101.779 931.791 100.729 931.802 99.1934ZM926.631 99.1934C926.62 98.221 927.437 97.558 928.631 97.547C929.813 97.558 930.642 98.221 930.653 99.1934C930.642 100.155 929.813 100.818 928.631 100.807C927.437 100.818 926.62 100.155 926.631 99.1934ZM934.929 104V107.271H936.155V103.006H926.807V104H934.929ZM948.713 93.3923V103.58H949.939V93.3923H948.713ZM942.774 97.8398C943.387 99.442 944.641 100.691 946.249 101.315L946.89 100.331C944.823 99.5801 943.376 97.6796 943.387 95.558V94.1657H942.138V95.558C942.138 97.7569 940.713 99.7901 938.613 100.608L939.287 101.569C940.912 100.912 942.171 99.547 942.774 97.8398ZM942.194 102.641H940.967V106.961H950.37V105.945H942.194V102.641ZM966.601 95.4254H963.004C962.363 94.6409 961.341 94.1713 960.137 94.1768C958.059 94.1657 956.523 95.547 956.535 97.4917C956.523 99.4586 958.059 100.829 960.137 100.818C961.341 100.823 962.363 100.354 963.01 99.5691H966.601V101.558H967.827V93.3812H966.601V95.4254ZM960.137 99.779C958.722 99.779 957.706 98.8398 957.706 97.4917C957.706 96.1768 958.722 95.2155 960.137 95.2155C961.507 95.2155 962.546 96.1768 962.546 97.4917C962.546 98.8398 961.507 99.779 960.137 99.779ZM963.562 98.5525C963.667 98.2265 963.728 97.8674 963.728 97.4917C963.728 97.1215 963.667 96.768 963.562 96.442H966.601V98.5525H963.562ZM966.601 103.315V107.271H967.827V102.331H958.479V103.315H966.601ZM983.103 95.558H981.004V93.3923H979.777V101.801H981.004V99.5249H983.103V98.4862H981.004V96.5967H983.103V95.558ZM978.396 99.4917C976.225 99.8508 974.44 99.9392 971.976 99.9337V98H977.026V94.2541H970.727V95.2597H975.821V97.0387H970.76V100.961H971.843C974.429 100.972 976.285 100.884 978.517 100.508L978.396 99.4917ZM976.539 102.199C973.678 102.199 971.932 103.138 971.932 104.729C971.932 106.32 973.678 107.238 976.539 107.238C979.379 107.238 981.125 106.32 981.125 104.729C981.125 103.138 979.379 102.199 976.539 102.199ZM976.539 106.276C974.418 106.287 973.125 105.702 973.136 104.729C973.125 103.757 974.418 103.171 976.539 103.171C978.65 103.171 979.932 103.757 979.932 104.729C979.932 105.702 978.65 106.287 976.539 106.276ZM998.229 93.3923V103.58H999.455V93.3923H998.229ZM992.394 98.4033C993.019 99.8674 994.306 101.011 995.919 101.558L996.549 100.586C994.472 99.9227 992.991 98.232 992.991 96.3536V95.547H996.184V94.5414H988.505V95.547H991.753V96.3536C991.742 98.3315 990.273 100.133 988.184 100.862L988.825 101.845C990.483 101.238 991.781 99.989 992.394 98.4033ZM991.709 102.608H990.483V106.961H999.886V105.945H991.709V102.608ZM1012.68 93.3702H1011.45V103.436H1012.68V98.5414H1014.77V97.5138H1012.68V93.3702ZM1009.92 99.4807C1008.07 99.8619 1006.48 99.9448 1003.69 99.9337V95.6022H1008.65V94.5856H1002.48V100.961H1003.55C1006.47 100.972 1008.12 100.873 1010.08 100.497L1009.92 99.4807ZM1003.98 102.42V106.961H1013.32V105.945H1005.19V102.42H1003.98Z" fill="#444444"/>
<mask id="path-19-inside-7_461_25474" fill="white">
<path d="M1207.22 60H1392V140H1207.22V60Z"/>
</mask>
<path d="M1207.22 60H1392V140H1207.22V60Z" fill="white"/>
<path d="M1207.22 140H1206.22V141H1207.22V140ZM1392 139H1207.22V141H1392V139ZM1208.22 140V60H1206.22V140H1208.22Z" fill="#DDDDDD" mask="url(#path-19-inside-7_461_25474)"/>
<mask id="path-21-inside-8_461_25474" fill="white">
<path d="M534 140H1207.42V220H534V140Z"/>
</mask>
<path d="M534 140H1207.42V220H534V140Z" fill="white"/>
<path d="M534 220H533V221H534V220ZM1207.42 219H534V221H1207.42V219ZM535 220V140H533V220H535Z" fill="#DDDDDD" mask="url(#path-21-inside-8_461_25474)"/>
<mask id="path-23-inside-9_461_25474" fill="white">
<path d="M0 140H184.779V220H0V140Z"/>
</mask>
<path d="M0 140H184.779V220H0V140Z" fill="white"/>
<path d="M184.779 219H0V221H184.779V219Z" fill="#DDDDDD" mask="url(#path-23-inside-9_461_25474)"/>
<path d="M1299.75 94.6851L1296.93 96.5635V97.9779L1299.68 96.1547H1299.75V106H1301.16V94.6851H1299.75Z" fill="#222222"/>
<path d="M96.103 186V184.751H90.7108V184.663L93.2964 181.989C95.3075 179.923 95.8931 178.939 95.9041 177.68C95.8931 175.912 94.4345 174.53 92.3793 174.53C90.3351 174.53 88.7881 175.878 88.7992 177.878H90.1362C90.1362 176.608 90.987 175.757 92.3351 175.757C93.6058 175.757 94.5782 176.508 94.5892 177.68C94.5782 178.718 93.9373 179.481 92.6003 180.906L88.7439 184.972L88.755 186H96.103Z" fill="#222222"/>
<path d="M574.807 173.381V181.801H576.033V173.381H574.807ZM565.293 174.232V180.785H571.823V174.232H570.608V176.42H566.508V174.232H565.293ZM566.508 177.403H570.608V179.779H566.508V177.403ZM566.685 182.575V183.569H574.807V187.271H576.033V182.575H566.685ZM589.088 187.271H590.281V173.381H589.088V187.271ZM583.231 178.685V179.713H586.27V186.541H587.441V173.713H586.27V178.685H583.231ZM580.126 176.11H584.171V175.094H578.933V183.923H579.817C582.049 183.912 583.408 183.845 585.01 183.514L584.889 182.475C583.397 182.801 582.132 182.878 580.126 182.884V176.11ZM602.441 173.381V187.293H603.667V173.381H602.441ZM596.286 174.453C594.209 174.464 592.739 176.343 592.739 179.293C592.739 182.254 594.209 184.133 596.286 184.133C598.341 184.133 599.833 182.254 599.833 179.293C599.833 176.343 598.341 174.464 596.286 174.453ZM596.286 175.547C597.678 175.558 598.64 177.039 598.64 179.293C598.64 181.558 597.678 183.039 596.286 183.039C594.894 183.039 593.921 181.558 593.921 179.293C593.921 177.039 594.894 175.558 596.286 175.547ZM616.346 178.63H613.407V179.646H616.346V187.293H617.562V173.381H616.346V178.63ZM607.926 179.558H612.556V178.564H607.926V175.669H613.175V174.652H606.689V183.945H607.75C610.435 183.934 612.136 183.845 614.158 183.514L614.015 182.497C612.114 182.845 610.479 182.912 607.926 182.917V179.558ZM634.146 187.271H635.372V173.381H634.146V187.271ZM624.709 174.895V175.89H630.013C629.742 179.204 627.825 181.878 624.068 183.657L624.731 184.663C629.394 182.42 631.251 178.884 631.262 174.895H624.709ZM648.582 173.392H647.355V183.591H648.582V178.63H650.67V177.591H648.582V173.392ZM643.565 174.387V176.729H639.521V174.387H638.316V181.249H644.781V174.387H643.565ZM639.521 180.254V177.702H643.565V180.254H639.521ZM639.886 182.597V186.961H649.223V185.945H641.101V182.597H639.886ZM652.321 184.939L651.46 189.193H652.62L653.824 184.939H652.321ZM665.927 187.271H667.154V173.381H665.927V187.271ZM656.491 174.895V175.89H661.794C661.524 179.204 659.607 181.878 655.85 183.657L656.513 184.663C661.176 182.42 663.032 178.884 663.043 174.895H656.491ZM679.788 176.707H676.871C676.606 175.105 675.192 174.022 673.324 174.033C671.214 174.022 669.711 175.348 669.722 177.238C669.711 179.138 671.214 180.453 673.324 180.453C675.208 180.453 676.634 179.359 676.877 177.724H679.788V180.829H681.015V173.381H679.788V176.707ZM673.324 179.414C671.899 179.414 670.893 178.497 670.893 177.238C670.893 175.956 671.899 175.061 673.324 175.072C674.728 175.061 675.733 175.956 675.733 177.238C675.733 178.497 674.728 179.414 673.324 179.414ZM673.291 183.293V181.536H672.065V187.083H681.015V181.536H679.788V183.293H673.291ZM673.291 186.077V184.276H679.788V186.077H673.291ZM691.953 175.094V173.381H690.737V175.094H687.356V176.099H695.223V175.094H691.953ZM695.212 178.11H697.632V180H695.212V180.994H697.632V183.989H698.859V173.392H697.632V177.094H695.212V178.11ZM694.505 179.514C694.494 177.923 693.19 176.862 691.334 176.862C689.466 176.862 688.174 177.923 688.185 179.514C688.174 181.094 689.466 182.166 691.334 182.166C693.19 182.166 694.494 181.094 694.505 179.514ZM689.334 179.514C689.323 178.519 690.14 177.845 691.334 177.834C692.516 177.845 693.334 178.519 693.345 179.514C693.334 180.519 692.516 181.193 691.334 181.193C690.14 181.193 689.323 180.519 689.334 179.514ZM691.113 183.05H689.875V186.961H699.179V185.945H691.113V183.05ZM709.973 174.961V173.271H708.758V174.961H705.222V175.945H713.498V174.961H709.973ZM716.05 173.381H714.824V182.343H716.05V178.298H718.139V177.249H716.05V173.381ZM709.365 181.558C711.354 181.569 712.691 180.608 712.702 179.116C712.691 177.624 711.354 176.663 709.365 176.663C707.343 176.663 706.006 177.624 706.017 179.116C706.006 180.608 707.343 181.569 709.365 181.558ZM707.189 179.116C707.177 178.199 708.05 177.591 709.365 177.58C710.658 177.591 711.531 178.199 711.542 179.116C711.531 180.022 710.658 180.608 709.365 180.608C708.05 180.608 707.177 180.022 707.189 179.116ZM711.664 182.442C708.824 182.442 707.1 183.326 707.111 184.851C707.1 186.354 708.824 187.238 711.664 187.238C714.481 187.238 716.205 186.354 716.205 184.851C716.205 183.326 714.481 182.442 711.664 182.442ZM711.664 186.276C709.575 186.287 708.316 185.746 708.327 184.851C708.316 183.923 709.575 183.403 711.664 183.403C713.73 183.403 714.99 183.923 714.99 184.851C714.99 185.746 713.73 186.287 711.664 186.276ZM723.945 174.586V173.271H722.718V174.586H719.304V175.525H727.348V174.586H723.945ZM729.856 173.392H728.63V182.807H729.856V178.608H731.934V177.58H729.856V173.392ZM727.768 180.751C726.553 180.923 725.243 181.028 723.945 181.094V180.028C725.558 179.884 726.564 179.166 726.575 178.077C726.564 176.84 725.293 176.11 723.315 176.11C721.337 176.11 720.055 176.84 720.066 178.077C720.055 179.177 721.083 179.895 722.718 180.033V181.144C721.365 181.182 720.066 181.188 718.95 181.182L719.094 182.177C721.558 182.177 724.884 182.133 727.867 181.613L727.768 180.751ZM721.238 178.077C721.227 177.403 722.033 176.961 723.315 176.961C724.597 176.961 725.403 177.403 725.403 178.077C725.403 178.773 724.597 179.204 723.315 179.204C722.033 179.204 721.227 178.773 721.238 178.077ZM725.381 182.983C722.475 182.972 720.807 183.735 720.807 185.127C720.807 186.508 722.475 187.249 725.381 187.26C728.265 187.249 729.945 186.508 729.956 185.127C729.945 183.735 728.265 182.972 725.381 182.983ZM725.381 186.32C723.238 186.331 722.033 185.878 722.044 185.127C722.033 184.343 723.238 183.89 725.381 183.901C727.503 183.89 728.696 184.343 728.707 185.127C728.696 185.878 727.503 186.331 725.381 186.32ZM746.639 173.823V175.613H739.766V173.823H738.54V179.37H747.866V173.823H746.639ZM739.766 178.376V176.552H746.639V178.376H739.766ZM736.838 181.735H742.684V184.453H743.899V181.735H749.557V180.729H736.838V181.735ZM738.474 183.171V186.961H748.142V185.945H739.689V183.171H738.474ZM760.976 176.298H757.882V177.326H760.976V181.591H762.202V173.381H760.976V176.298ZM754.843 177.735C755.44 179.215 756.644 180.398 758.191 180.972L758.865 179.989C756.843 179.293 755.418 177.525 755.429 175.613V174.088H754.213V175.558C754.202 177.702 752.81 179.536 750.711 180.287L751.374 181.293C753.003 180.652 754.252 179.376 754.843 177.735ZM760.976 183.348V187.271H762.202V182.365H752.854V183.348H760.976ZM778.775 173.381V181.359H779.98V173.381H778.775ZM769.262 174.287V179.934H775.781V174.287H769.262ZM770.466 178.961V175.282H774.576V178.961H770.466ZM780.344 183.26V182.309H776.19V180.95H774.974V182.309H770.842V183.26H774.952C774.952 184.652 772.654 186 770.267 186.265L770.709 187.227C772.797 186.934 774.748 185.972 775.582 184.657C776.411 185.95 778.317 186.939 780.4 187.227L780.831 186.265C778.444 185.967 776.212 184.619 776.212 183.26H780.344ZM793.304 178.619H797.558V177.624H789.194V175.017H797.47V174.033H787.978V178.619H792.111V180.243H786.376V181.238H799.05V180.243H793.304V178.619ZM792.696 182.254C789.702 182.254 787.901 183.16 787.901 184.751C787.901 186.354 789.702 187.249 792.696 187.26C795.68 187.249 797.47 186.354 797.481 184.751C797.47 183.16 795.68 182.254 792.696 182.254ZM792.696 186.276C790.475 186.287 789.138 185.724 789.15 184.751C789.138 183.79 790.475 183.215 792.696 183.215C794.906 183.215 796.243 183.79 796.254 184.751C796.243 185.724 794.906 186.287 792.696 186.276ZM801.364 179.006C803.646 178.724 805.768 177.724 806.536 176.193C807.298 177.724 809.425 178.724 811.707 179.006L812.16 178.033C809.729 177.773 807.409 176.575 807.331 175.028H811.729V174.033H801.364V175.028H805.74C805.652 176.586 803.331 177.773 800.911 178.033L801.364 179.006ZM807.132 178.309H805.928V180.298H800.204V181.315H812.867V180.298H807.132V178.309ZM806.525 182.453C803.519 182.453 801.729 183.304 801.729 184.851C801.729 186.387 803.519 187.238 806.525 187.238C809.519 187.238 811.298 186.387 811.309 184.851C811.298 183.304 809.519 182.453 806.525 182.453ZM806.525 186.276C804.282 186.287 802.967 185.757 802.978 184.851C802.967 183.934 804.282 183.414 806.525 183.414C808.757 183.414 810.072 183.934 810.083 184.851C810.072 185.757 808.757 186.287 806.525 186.276ZM824.286 187.271H825.513V173.381H824.286V187.271ZM814.85 174.895V175.89H820.154C819.883 179.204 817.966 181.878 814.209 183.657L814.872 184.663C819.535 182.42 821.391 178.884 821.402 174.895H814.85ZM838.148 176.707H835.231C834.965 175.105 833.551 174.022 831.684 174.033C829.573 174.022 828.07 175.348 828.081 177.238C828.07 179.138 829.573 180.453 831.684 180.453C833.568 180.453 834.993 179.359 835.236 177.724H838.148V180.829H839.374V173.381H838.148V176.707ZM831.684 179.414C830.258 179.414 829.253 178.497 829.253 177.238C829.253 175.956 830.258 175.061 831.684 175.072C833.087 175.061 834.092 175.956 834.092 177.238C834.092 178.497 833.087 179.414 831.684 179.414ZM831.65 183.293V181.536H830.424V187.083H839.374V181.536H838.148V183.293H831.65ZM831.65 186.077V184.276H838.148V186.077H831.65ZM855.925 173.381V187.293H857.152V173.381H855.925ZM846.511 174.564V183.934H853.085V174.564H851.87V178.232H847.737V174.564H846.511ZM847.737 179.215H851.87V182.906H847.737V179.215ZM869.477 176.331C869.477 178.066 869.477 179.89 868.991 182.343L870.195 182.486C870.681 179.901 870.681 178.11 870.693 176.331V174.785H860.858V175.801H869.477V176.331ZM867.344 179.702H866.14V184.276H863.897V179.702H862.67V184.276H859.532V185.304H872.195V184.276H867.344V179.702Z" fill="#222222"/>
<mask id="path-28-inside-10_461_25474" fill="white">
<path d="M185 60H534.027V140H185V60Z"/>
</mask>
<path d="M185 60H534.027V140H185V60Z" fill="white"/>
<path d="M185 140H184V141H185V140ZM534.027 139H185V141H534.027V139ZM186 140V60H184V140H186Z" fill="#DDDDDD" mask="url(#path-28-inside-10_461_25474)"/>
<path d="M225.818 107.271H227.044V93.3812H225.818V107.271ZM216.381 94.895V95.8895H221.685C221.414 99.2044 219.497 101.878 215.74 103.657L216.403 104.663C221.066 102.42 222.923 98.884 222.934 94.895H216.381ZM239.679 96.7072H236.762C236.497 95.105 235.082 94.0221 233.215 94.0331C231.104 94.0221 229.602 95.3481 229.613 97.2376C229.602 99.1381 231.104 100.453 233.215 100.453C235.099 100.453 236.524 99.3591 236.767 97.7238H239.679V100.829H240.905V93.3812H239.679V96.7072ZM233.215 99.4144C231.789 99.4144 230.784 98.4972 230.784 97.2376C230.784 95.9558 231.789 95.0608 233.215 95.0718C234.618 95.0608 235.624 95.9558 235.624 97.2376C235.624 98.4972 234.618 99.4144 233.215 99.4144ZM233.182 103.293V101.536H231.955V107.083H240.905V101.536H239.679V103.293H233.182ZM233.182 106.077V104.276H239.679V106.077H233.182ZM247.828 95.0939V93.3812H246.612V95.0939H243.231V96.0994H251.098V95.0939H247.828ZM251.087 98.1105H253.507V100H251.087V100.994H253.507V103.989H254.734V93.3923H253.507V97.0939H251.087V98.1105ZM250.38 99.5138C250.369 97.9227 249.065 96.8619 247.209 96.8619C245.341 96.8619 244.049 97.9227 244.06 99.5138C244.049 101.094 245.341 102.166 247.209 102.166C249.065 102.166 250.369 101.094 250.38 99.5138ZM245.209 99.5138C245.198 98.5193 246.015 97.8453 247.209 97.8343C248.391 97.8453 249.209 98.5193 249.22 99.5138C249.209 100.519 248.391 101.193 247.209 101.193C246.015 101.193 245.198 100.519 245.209 99.5138ZM246.988 103.05H245.75V106.961H255.054V105.945H246.988V103.05ZM261.976 94.5856V93.2707H260.75V94.5856H257.335V95.5249H265.379V94.5856H261.976ZM267.888 93.3923H266.661V102.807H267.888V98.6077H269.965V97.5801H267.888V93.3923ZM265.799 100.751C264.584 100.923 263.274 101.028 261.976 101.094V100.028C263.589 99.884 264.595 99.1657 264.606 98.0773C264.595 96.8398 263.324 96.1105 261.346 96.1105C259.368 96.1105 258.087 96.8398 258.098 98.0773C258.087 99.1768 259.114 99.895 260.75 100.033V101.144C259.396 101.182 258.098 101.188 256.982 101.182L257.125 102.177C259.589 102.177 262.915 102.133 265.899 101.613L265.799 100.751ZM259.269 98.0773C259.258 97.4033 260.064 96.9613 261.346 96.9613C262.628 96.9613 263.435 97.4033 263.435 98.0773C263.435 98.7735 262.628 99.2044 261.346 99.2044C260.064 99.2044 259.258 98.7735 259.269 98.0773ZM263.413 102.983C260.506 102.972 258.838 103.735 258.838 105.127C258.838 106.508 260.506 107.249 263.413 107.26C266.297 107.249 267.976 106.508 267.987 105.127C267.976 103.735 266.297 102.972 263.413 102.983ZM263.413 106.32C261.269 106.331 260.064 105.878 260.076 105.127C260.064 104.343 261.269 103.89 263.413 103.901C265.534 103.89 266.727 104.343 266.739 105.127C266.727 105.878 265.534 106.331 263.413 106.32ZM282.317 98.2431H285.179V103.58H286.405V93.3923H285.179V97.2376H282.317V98.2431ZM279.124 98.3039C279.726 99.7403 280.936 100.906 282.505 101.47L283.146 100.486C281.113 99.7901 279.72 98.0442 279.72 96.2541V95.5359H282.825V94.5193H275.345V95.5359H278.483V96.2541C278.483 98.2431 277.002 100.077 274.947 100.796L275.588 101.801C277.24 101.182 278.521 99.9061 279.124 98.3039ZM278.715 102.663H277.488V106.961H286.792V105.945H278.715V102.663ZM290.355 94.0552V98.895H299.758V94.0552H290.355ZM291.56 97.9116V95.0387H298.543V97.9116H291.56ZM288.698 101.503H294.543V104.343H295.758V101.503H301.416V100.486H288.698V101.503ZM290.333 102.972V106.961H300.002V105.945H291.56V102.972H290.333ZM313.299 99.0276V93.3812H312.073V107.26H313.299V100.066H315.553V99.0276H313.299ZM303.288 94.8729V95.9006H308.46C308.183 99.1989 306.227 101.873 302.636 103.657L303.321 104.619C307.852 102.387 309.697 98.8066 309.708 94.8729H303.288ZM330.635 93.3923V103.58H331.861V93.3923H330.635ZM324.801 98.4033C325.425 99.8674 326.712 101.011 328.325 101.558L328.955 100.586C326.878 99.9227 325.397 98.232 325.397 96.3536V95.547H328.591V94.5414H320.911V95.547H324.16V96.3536C324.149 98.3315 322.679 100.133 320.591 100.862L321.231 101.845C322.889 101.238 324.187 99.989 324.801 98.4033ZM324.115 102.608H322.889V106.961H332.292V105.945H324.115V102.608ZM345.082 93.3702H343.855V103.436H345.082V98.5414H347.181V97.5138H345.082V93.3702ZM342.33 99.4807C340.474 99.8619 338.883 99.9448 336.098 99.9337V95.6022H341.06V94.5856H334.883V100.961H335.955C338.872 100.972 340.529 100.873 342.485 100.497L342.33 99.4807ZM336.386 102.42V106.961H345.723V105.945H337.601V102.42H336.386Z" fill="#444444"/>
<mask id="path-31-inside-11_461_25474" fill="white">
<path d="M1207.22 140H1392V220H1207.22V140Z"/>
</mask>
<path d="M1207.22 140H1392V220H1207.22V140Z" fill="white"/>
<path d="M1207.22 220H1206.22V221H1207.22V220ZM1392 219H1207.22V221H1392V219ZM1208.22 220V140H1206.22V220H1208.22Z" fill="#DDDDDD" mask="url(#path-31-inside-11_461_25474)"/>
<mask id="path-33-inside-12_461_25474" fill="white">
<path d="M185 140H534.027V220H185V140Z"/>
</mask>
<path d="M185 140H534.027V220H185V140Z" fill="white"/>
<path d="M185 220H184V221H185V220ZM534.027 219H185V221H534.027V219ZM186 220V140H184V220H186Z" fill="#DDDDDD" mask="url(#path-33-inside-12_461_25474)"/>
<path d="M1303.32 186V184.751H1297.93V184.663L1300.52 181.989C1302.53 179.923 1303.11 178.939 1303.13 177.68C1303.11 175.912 1301.66 174.53 1299.6 174.53C1297.56 174.53 1296.01 175.878 1296.02 177.878H1297.36C1297.36 176.608 1298.21 175.757 1299.56 175.757C1300.83 175.757 1301.8 176.508 1301.81 177.68C1301.8 178.718 1301.16 179.481 1299.82 180.906L1295.97 184.972L1295.98 186H1303.32Z" fill="#222222"/>
<path d="M225.851 176.387V178.055H222.138V179.028H225.851V180.486H227.077V173.381H225.851V175.403H222.635C222.724 174.983 222.768 174.541 222.768 174.077H216.503V175.094H221.409C221.188 177.331 219.204 178.989 215.796 179.779L216.238 180.796C219.32 180.061 221.475 178.575 222.343 176.387H225.851ZM219.32 184.497H227.077V181.116H218.072V182.11H225.851V183.558H218.105V187.138H227.552V186.133H219.32V184.497ZM240.11 179.193V173.381H238.883V187.271H240.11V180.254H242.364V179.193H240.11ZM236.684 181.149C237.082 178.575 237.082 176.74 237.093 175.646V174.917H230.033V175.923H235.867C235.867 177.028 235.834 178.724 235.458 181.05L236.684 181.149ZM233.458 178.884H232.242V183.144C231.176 183.171 230.16 183.177 229.248 183.182L229.403 184.21C231.889 184.221 235.16 184.155 238.077 183.702L238.01 182.773C236.568 182.95 234.994 183.05 233.458 183.11V178.884ZM252.999 173.823V175.613H246.126V173.823H244.899V179.37H254.225V173.823H252.999ZM246.126 178.376V176.552H252.999V178.376H246.126ZM243.198 181.735H249.043V184.453H250.258V181.735H255.916V180.729H243.198V181.735ZM244.833 183.171V186.961H254.502V185.945H246.049V183.171H244.833ZM267.335 176.298H264.241V177.326H267.335V181.591H268.562V173.381H267.335V176.298ZM261.203 177.735C261.799 179.215 263.004 180.398 264.551 180.972L265.225 179.989C263.203 179.293 261.777 177.525 261.788 175.613V174.088H260.573V175.558C260.562 177.702 259.169 179.536 257.07 180.287L257.733 181.293C259.363 180.652 260.611 179.376 261.203 177.735ZM267.335 183.348V187.271H268.562V182.365H259.214V183.348H267.335Z" fill="#222222"/>
</svg>
